<svg width="20" height="20" viewBox="0 0 20 20" fill="none" xmlns="http://www.w3.org/2000/svg">
<path d="M3.33301 9.99999C3.33301 10.221 3.42081 10.433 3.57709 10.5892C3.73337 10.7455 3.94533 10.8333 4.16634 10.8333H10.4913L8.57467 12.7417C8.49657 12.8191 8.43457 12.9113 8.39226 13.0128C8.34996 13.1144 8.32818 13.2233 8.32818 13.3333C8.32818 13.4433 8.34996 13.5523 8.39226 13.6538C8.43457 13.7554 8.49657 13.8475 8.57467 13.925C8.65214 14.0031 8.74431 14.0651 8.84586 14.1074C8.94741 14.1497 9.05633 14.1715 9.16634 14.1715C9.27635 14.1715 9.38527 14.1497 9.48682 14.1074C9.58837 14.0651 9.68054 14.0031 9.75801 13.925L13.0913 10.5917C13.1672 10.5124 13.2267 10.419 13.2663 10.3167C13.3497 10.1138 13.3497 9.88621 13.2663 9.68332C13.2267 9.58103 13.1672 9.48758 13.0913 9.40832L9.75801 6.07499C9.68031 5.99729 9.58807 5.93566 9.48655 5.89361C9.38503 5.85156 9.27622 5.82991 9.16634 5.82991C9.05646 5.82991 8.94765 5.85156 8.84613 5.89361C8.74461 5.93566 8.65237 5.99729 8.57467 6.07499C8.49697 6.15269 8.43534 6.24493 8.39329 6.34645C8.35124 6.44797 8.3296 6.55677 8.3296 6.66666C8.3296 6.77654 8.35124 6.88535 8.39329 6.98687C8.43534 7.08838 8.49697 7.18062 8.57467 7.25832L10.4913 9.16666H4.16634C3.94533 9.16666 3.73337 9.25445 3.57709 9.41073C3.42081 9.56702 3.33301 9.77898 3.33301 9.99999ZM14.1663 1.66666H5.83301C5.16997 1.66666 4.53408 1.93005 4.06524 2.39889C3.5964 2.86773 3.33301 3.50362 3.33301 4.16666V6.66666C3.33301 6.88767 3.42081 7.09963 3.57709 7.25591C3.73337 7.41219 3.94533 7.49999 4.16634 7.49999C4.38735 7.49999 4.59932 7.41219 4.7556 7.25591C4.91188 7.09963 4.99967 6.88767 4.99967 6.66666V4.16666C4.99967 3.94564 5.08747 3.73368 5.24375 3.5774C5.40003 3.42112 5.61199 3.33332 5.83301 3.33332H14.1663C14.3874 3.33332 14.5993 3.42112 14.7556 3.5774C14.9119 3.73368 14.9997 3.94564 14.9997 4.16666V15.8333C14.9997 16.0543 14.9119 16.2663 14.7556 16.4226C14.5993 16.5789 14.3874 16.6667 14.1663 16.6667H5.83301C5.61199 16.6667 5.40003 16.5789 5.24375 16.4226C5.08747 16.2663 4.99967 16.0543 4.99967 15.8333V13.3333C4.99967 13.1123 4.91188 12.9003 4.7556 12.7441C4.59932 12.5878 4.38735 12.5 4.16634 12.5C3.94533 12.5 3.73337 12.5878 3.57709 12.7441C3.42081 12.9003 3.33301 13.1123 3.33301 13.3333V15.8333C3.33301 16.4964 3.5964 17.1322 4.06524 17.6011C4.53408 18.0699 5.16997 18.3333 5.83301 18.3333H14.1663C14.8294 18.3333 15.4653 18.0699 15.9341 17.6011C16.4029 17.1322 16.6663 16.4964 16.6663 15.8333V4.16666C16.6663 3.50362 16.4029 2.86773 15.9341 2.39889C15.4653 1.93005 14.8294 1.66666 14.1663 1.66666Z" fill="#F56A5B"/>
</svg>
