<svg width="16" height="16" viewBox="0 0 16 16" fill="none" xmlns="http://www.w3.org/2000/svg">
<path d="M8.9394 7.9987L13.1364 3.8084C13.2618 3.68296 13.3323 3.51282 13.3323 3.33541C13.3323 3.15801 13.2618 2.98787 13.1364 2.86242C13.0109 2.73698 12.8408 2.6665 12.6634 2.6665C12.486 2.6665 12.3158 2.73698 12.1904 2.86242L8.00008 7.05938L3.80979 2.86242C3.68434 2.73698 3.5142 2.6665 3.33679 2.6665C3.15939 2.6665 2.98925 2.73698 2.8638 2.86242C2.73836 2.98787 2.66789 3.15801 2.66789 3.33541C2.66789 3.51282 2.73836 3.68296 2.8638 3.8084L7.06076 7.9987L2.8638 12.189C2.80136 12.2509 2.7518 12.3246 2.71798 12.4058C2.68416 12.487 2.66675 12.574 2.66675 12.662C2.66675 12.7499 2.68416 12.837 2.71798 12.9182C2.7518 12.9994 2.80136 13.073 2.8638 13.135C2.92573 13.1974 2.99942 13.247 3.0806 13.2808C3.16178 13.3146 3.24885 13.332 3.33679 13.332C3.42474 13.332 3.51181 13.3146 3.59299 13.2808C3.67417 13.247 3.74785 13.1974 3.80979 13.135L8.00008 8.93802L12.1904 13.135C12.2523 13.1974 12.326 13.247 12.4072 13.2808C12.4883 13.3146 12.5754 13.332 12.6634 13.332C12.7513 13.332 12.8384 13.3146 12.9196 13.2808C13.0007 13.247 13.0744 13.1974 13.1364 13.135C13.1988 13.073 13.2484 12.9994 13.2822 12.9182C13.316 12.837 13.3334 12.7499 13.3334 12.662C13.3334 12.574 13.316 12.487 13.2822 12.4058C13.2484 12.3246 13.1988 12.2509 13.1364 12.189L8.9394 7.9987Z" fill="#F56A5B"/>
</svg>
