<svg width="32" height="32" viewBox="0 0 32 32" fill="none" xmlns="http://www.w3.org/2000/svg">
<path d="M25.5879 11.1907C25.3575 10.334 24.6819 9.65879 23.8252 9.42813C22.2602 9 15.9998 9 15.9998 9C15.9998 9 9.73963 9 8.17456 9.41189C7.33435 9.64231 6.64234 10.3342 6.41187 11.1907C6 12.7553 6 16 6 16C6 16 6 19.2611 6.41187 20.8093C6.64258 21.6658 7.31787 22.3411 8.17469 22.5718C9.75611 23 16 23 16 23C16 23 22.2602 23 23.8252 22.5881C24.682 22.3576 25.3575 21.6823 25.5882 20.8258C25.9999 19.2611 25.9999 16.0165 25.9999 16.0165C25.9999 16.0165 26.0164 12.7553 25.5879 11.1907ZM14.0066 18.9976V13.0024L19.2124 16L14.0066 18.9976Z" fill="#0D1F42"/>
<rect x="0.5" y="0.5" width="31" height="31" rx="11.5" stroke="#EBEDF0"/>
</svg>
